{
    "variable": [
        {
            "id": "baseUrl",
            "key": "baseUrl",
            "type": "string",
            "name": "string",
            "value": "api.test"
        }
    ],
    "info": {
        "name": "siu Todo App",
        "_postman_id": "8a7d46ab-fc1e-43f4-8c16-5d3565e312e4",
        "description": "\uc548\ub155\ud558\uc138\uc694 \uc5ec\uae30\ub294 \uc2dc\uc6b0\uc758 todo \uc571 \uc785\ub2c8\ub2e4. v1 ",
        "schema": "https:\/\/schema.getpostman.com\/json\/collection\/v2.1.0\/collection.json"
    },
    "item": [
        {
            "name": "Endpoints",
            "description": "",
            "item": [
                {
                    "name": "Display a listing of the resource.",
                    "request": {
                        "url": {
                            "protocol": "http",
                            "host": "{{baseUrl}}",
                            "path": "api\/v1\/todos",
                            "query": [],
                            "raw": "http:\/\/{{baseUrl}}\/api\/v1\/todos"
                        },
                        "method": "GET",
                        "header": [
                            {
                                "key": "Content-Type",
                                "value": "application\/json"
                            },
                            {
                                "key": "Accept",
                                "value": "application\/json"
                            }
                        ],
                        "body": null,
                        "description": "",
                        "auth": {
                            "type": "noauth"
                        }
                    },
                    "response": [
                        {
                            "header": [
                                {
                                    "key": "cache-control",
                                    "value": "no-cache, private"
                                },
                                {
                                    "key": "content-type",
                                    "value": "application\/json"
                                },
                                {
                                    "key": "x-ratelimit-limit",
                                    "value": "60"
                                },
                                {
                                    "key": "x-ratelimit-remaining",
                                    "value": "57"
                                },
                                {
                                    "key": "access-control-allow-origin",
                                    "value": "*"
                                }
                            ],
                            "code": 200,
                            "body": "{\"data\":[{\"id\":53,\"title\":\"hello my name is siu\",\"content\":\"goodbye\",\"deadline\":\"2020-10-04\",\"isDone\":1,\"updated_at\":\"2d\\ubd84 \\uc804\\uc5d0 \\uc218\\uc815\\ub428\"},{\"id\":52,\"title\":\"hello my name is siu\",\"content\":\"goodbye\",\"deadline\":\"\\ub9c8\\uac10 \\uae30\\uac04\\uc774 \\uc815\\ud574\\uc9c0\\uc9c0 \\uc54a\\uc558\\uc2b5\\ub2c8\\ub2e4.\",\"isDone\":1,\"updated_at\":\"2d\\ubd84 \\uc804\\uc5d0 \\uc218\\uc815\\ub428\"},{\"id\":51,\"title\":\"hello my name is siu\",\"content\":\"goodbye\",\"deadline\":\"\\ub9c8\\uac10 \\uae30\\uac04\\uc774 \\uc815\\ud574\\uc9c0\\uc9c0 \\uc54a\\uc558\\uc2b5\\ub2c8\\ub2e4.\",\"isDone\":1,\"updated_at\":\"2d\\ubd84 \\uc804\\uc5d0 \\uc218\\uc815\\ub428\"},{\"id\":9,\"title\":\"Fugiat et id.\",\"content\":\"In tempore eius numquam ex enim. In quibusdam nam ut optio. Est ex neque et qui nam.\",\"deadline\":\"\\ub9c8\\uac10 \\uae30\\uac04\\uc774 \\uc815\\ud574\\uc9c0\\uc9c0 \\uc54a\\uc558\\uc2b5\\ub2c8\\ub2e4.\",\"isDone\":0,\"updated_at\":\"2d\\ubd84 \\uc804\\uc5d0 \\uc218\\uc815\\ub428\"},{\"id\":10,\"title\":\"Consequatur.\",\"content\":\"Quos quaerat sint unde id modi. Fuga ea esse cum eos corporis cum.\",\"deadline\":\"\\ub9c8\\uac10 \\uae30\\uac04\\uc774 \\uc815\\ud574\\uc9c0\\uc9c0 \\uc54a\\uc558\\uc2b5\\ub2c8\\ub2e4.\",\"isDone\":0,\"updated_at\":\"2d\\ubd84 \\uc804\\uc5d0 \\uc218\\uc815\\ub428\"}],\"meta\":{\"current_page\":1,\"from\":1,\"last_page\":11,\"path\":\"http:\\\/\\\/api.test\\\/api\\\/v1\\\/todos\",\"per_page\":5,\"to\":5,\"total\":52}}",
                            "name": ""
                        }
                    ]
                },
                {
                    "name": "Store a newly created resource in storage.",
                    "request": {
                        "url": {
                            "protocol": "http",
                            "host": "{{baseUrl}}",
                            "path": "api\/v1\/todos",
                            "query": [],
                            "raw": "http:\/\/{{baseUrl}}\/api\/v1\/todos"
                        },
                        "method": "POST",
                        "header": [
                            {
                                "key": "Content-Type",
                                "value": "application\/json"
                            },
                            {
                                "key": "Accept",
                                "value": "application\/json"
                            }
                        ],
                        "body": {
                            "mode": "raw",
                            "raw": "{\"title\":\"rwyeytrzwksmgmsiztuvuhthxqflvehbstqzmu\",\"content\":\"wvcahcrexqccvswpcqnzychzuxqnysieaiiucghpkrzbgndeupxyfsqdcitbnpijkszjbxbuthzaqktwoumkmgzszigjowocgwydqxzknshhvgfbtyxaozhbfpxsraackollhlwv\",\"deadline\":\"2021-09-11T11:01:47\",\"isDone\":false}"
                        },
                        "description": "",
                        "auth": {
                            "type": "noauth"
                        }
                    },
                    "response": []
                },
                {
                    "name": "Display the specified resource.",
                    "request": {
                        "url": {
                            "protocol": "http",
                            "host": "{{baseUrl}}",
                            "path": "api\/v1\/todos\/:id",
                            "query": [],
                            "raw": "http:\/\/{{baseUrl}}\/api\/v1\/todos\/:id",
                            "variable": [
                                {
                                    "id": "id",
                                    "key": "id",
                                    "value": "8",
                                    "description": "The ID of the todo."
                                }
                            ]
                        },
                        "method": "GET",
                        "header": [
                            {
                                "key": "Content-Type",
                                "value": "application\/json"
                            },
                            {
                                "key": "Accept",
                                "value": "application\/json"
                            }
                        ],
                        "body": null,
                        "description": "",
                        "auth": {
                            "type": "noauth"
                        }
                    },
                    "response": [
                        {
                            "header": [
                                {
                                    "key": "cache-control",
                                    "value": "no-cache, private"
                                },
                                {
                                    "key": "content-type",
                                    "value": "application\/json"
                                },
                                {
                                    "key": "x-ratelimit-limit",
                                    "value": "60"
                                },
                                {
                                    "key": "x-ratelimit-remaining",
                                    "value": "56"
                                },
                                {
                                    "key": "access-control-allow-origin",
                                    "value": "*"
                                }
                            ],
                            "code": 404,
                            "body": "{\"message\":\"\\ud574\\ub2f9 \\ud560\\uc77c\\uc744 \\ucc3e\\uc744\\uc218 \\uc5c6\\uc2b5\\ub2c8\\ub2e4.\"}",
                            "name": ""
                        }
                    ]
                },
                {
                    "name": "Update the specified resource in storage.",
                    "request": {
                        "url": {
                            "protocol": "http",
                            "host": "{{baseUrl}}",
                            "path": "api\/v1\/todos\/:id",
                            "query": [],
                            "raw": "http:\/\/{{baseUrl}}\/api\/v1\/todos\/:id",
                            "variable": [
                                {
                                    "id": "id",
                                    "key": "id",
                                    "value": "15",
                                    "description": "The ID of the todo."
                                }
                            ]
                        },
                        "method": "PUT",
                        "header": [
                            {
                                "key": "Content-Type",
                                "value": "application\/json"
                            },
                            {
                                "key": "Accept",
                                "value": "application\/json"
                            }
                        ],
                        "body": {
                            "mode": "raw",
                            "raw": "{\"title\":\"nbvobqiljiscdcmgytltvankpzdzqkmod\",\"content\":\"klitheyvjgbruugnvnydouoxuocdptiapdwgbwfoqhpczrpsvjpknmjwpomiimwyuevcbjxaoaflthpacxbuslroixaupmdlkdelygroo\",\"deadline\":\"2021-09-11T11:01:47\",\"isDone\":false}"
                        },
                        "description": "",
                        "auth": {
                            "type": "noauth"
                        }
                    },
                    "response": []
                },
                {
                    "name": "Remove the specified resource from storage.",
                    "request": {
                        "url": {
                            "protocol": "http",
                            "host": "{{baseUrl}}",
                            "path": "api\/v1\/todos\/:id",
                            "query": [],
                            "raw": "http:\/\/{{baseUrl}}\/api\/v1\/todos\/:id",
                            "variable": [
                                {
                                    "id": "id",
                                    "key": "id",
                                    "value": "3",
                                    "description": "The ID of the todo."
                                }
                            ]
                        },
                        "method": "DELETE",
                        "header": [
                            {
                                "key": "Content-Type",
                                "value": "application\/json"
                            },
                            {
                                "key": "Accept",
                                "value": "application\/json"
                            }
                        ],
                        "body": null,
                        "description": "",
                        "auth": {
                            "type": "noauth"
                        }
                    },
                    "response": []
                }
            ]
        }
    ],
    "auth": {
        "type": "noauth"
    }
}