name: Endpoints
description: ''
endpoints:
  -
    httpMethods:
      - GET
    uri: api/v1/todos
    metadata:
      title: 'Display a listing of the resource.'
      description: ''
      authenticated: false
    headers:
      Content-Type: application/json
      Accept: application/json
    urlParameters: []
    queryParameters: []
    bodyParameters: []
    responses:
      -
        status: 200
        content: '{"data":[{"id":53,"title":"hello my name is siu","content":"goodbye","deadline":"2020-10-04","isDone":1,"updated_at":"2d\ubd84 \uc804\uc5d0 \uc218\uc815\ub428"},{"id":52,"title":"hello my name is siu","content":"goodbye","deadline":"\ub9c8\uac10 \uae30\uac04\uc774 \uc815\ud574\uc9c0\uc9c0 \uc54a\uc558\uc2b5\ub2c8\ub2e4.","isDone":1,"updated_at":"2d\ubd84 \uc804\uc5d0 \uc218\uc815\ub428"},{"id":51,"title":"hello my name is siu","content":"goodbye","deadline":"\ub9c8\uac10 \uae30\uac04\uc774 \uc815\ud574\uc9c0\uc9c0 \uc54a\uc558\uc2b5\ub2c8\ub2e4.","isDone":1,"updated_at":"2d\ubd84 \uc804\uc5d0 \uc218\uc815\ub428"},{"id":9,"title":"Fugiat et id.","content":"In tempore eius numquam ex enim. In quibusdam nam ut optio. Est ex neque et qui nam.","deadline":"\ub9c8\uac10 \uae30\uac04\uc774 \uc815\ud574\uc9c0\uc9c0 \uc54a\uc558\uc2b5\ub2c8\ub2e4.","isDone":0,"updated_at":"2d\ubd84 \uc804\uc5d0 \uc218\uc815\ub428"},{"id":10,"title":"Consequatur.","content":"Quos quaerat sint unde id modi. Fuga ea esse cum eos corporis cum.","deadline":"\ub9c8\uac10 \uae30\uac04\uc774 \uc815\ud574\uc9c0\uc9c0 \uc54a\uc558\uc2b5\ub2c8\ub2e4.","isDone":0,"updated_at":"2d\ubd84 \uc804\uc5d0 \uc218\uc815\ub428"}],"meta":{"current_page":1,"from":1,"last_page":11,"path":"http:\/\/api.test\/api\/v1\/todos","per_page":5,"to":5,"total":52}}'
        headers:
          cache-control: 'no-cache, private'
          content-type: application/json
          x-ratelimit-limit: '60'
          x-ratelimit-remaining: '57'
          access-control-allow-origin: '*'
        description: null
    responseFields: []
  -
    httpMethods:
      - POST
    uri: api/v1/todos
    metadata:
      title: 'Store a newly created resource in storage.'
      description: ''
      authenticated: false
    headers:
      Content-Type: application/json
      Accept: application/json
    urlParameters: []
    queryParameters: []
    bodyParameters:
      title:
        name: title
        description: 'Must not be greater than 50 characters.'
        required: true
        example: rwyeytrzwksmgmsiztuvuhthxqflvehbstqzmu
        type: string
      content:
        name: content
        description: 'Must not be greater than 255 characters.'
        required: false
        example: wvcahcrexqccvswpcqnzychzuxqnysieaiiucghpkrzbgndeupxyfsqdcitbnpijkszjbxbuthzaqktwoumkmgzszigjowocgwydqxzknshhvgfbtyxaozhbfpxsraackollhlwv
        type: string
      deadline:
        name: deadline
        description: 'Must be a valid date.'
        required: false
        example: '2021-09-11T11:01:47'
        type: string
      isDone:
        name: isDone
        description: ''
        required: true
        example: false
        type: boolean
    responses: []
    responseFields: []
  -
    httpMethods:
      - GET
    uri: 'api/v1/todos/{id}'
    metadata:
      title: 'Display the specified resource.'
      description: ''
      authenticated: false
    headers:
      Content-Type: application/json
      Accept: application/json
    urlParameters:
      id:
        name: id
        description: 'The ID of the todo.'
        required: true
        example: 8
        type: integer
    queryParameters: []
    bodyParameters: []
    responses:
      -
        status: 404
        content: '{"message":"\ud574\ub2f9 \ud560\uc77c\uc744 \ucc3e\uc744\uc218 \uc5c6\uc2b5\ub2c8\ub2e4."}'
        headers:
          cache-control: 'no-cache, private'
          content-type: application/json
          x-ratelimit-limit: '60'
          x-ratelimit-remaining: '56'
          access-control-allow-origin: '*'
        description: null
    responseFields: []
  -
    httpMethods:
      - PUT
      - PATCH
    uri: 'api/v1/todos/{id}'
    metadata:
      title: 'Update the specified resource in storage.'
      description: ''
      authenticated: false
    headers:
      Content-Type: application/json
      Accept: application/json
    urlParameters:
      id:
        name: id
        description: 'The ID of the todo.'
        required: true
        example: 15
        type: integer
    queryParameters: []
    bodyParameters:
      title:
        name: title
        description: 'Must not be greater than 50 characters.'
        required: true
        example: nbvobqiljiscdcmgytltvankpzdzqkmod
        type: string
      content:
        name: content
        description: 'Must not be greater than 255 characters.'
        required: false
        example: klitheyvjgbruugnvnydouoxuocdptiapdwgbwfoqhpczrpsvjpknmjwpomiimwyuevcbjxaoaflthpacxbuslroixaupmdlkdelygroo
        type: string
      deadline:
        name: deadline
        description: 'Must be a valid date.'
        required: false
        example: '2021-09-11T11:01:47'
        type: string
      isDone:
        name: isDone
        description: ''
        required: true
        example: false
        type: boolean
    responses: []
    responseFields: []
  -
    httpMethods:
      - DELETE
    uri: 'api/v1/todos/{id}'
    metadata:
      title: 'Remove the specified resource from storage.'
      description: ''
      authenticated: false
    headers:
      Content-Type: application/json
      Accept: application/json
    urlParameters:
      id:
        name: id
        description: 'The ID of the todo.'
        required: true
        example: 3
        type: integer
    queryParameters: []
    bodyParameters: []
    responses: []
    responseFields: []
